<?xml version="1.0" encoding="UTF-8" standalone="no"?>
<svg
        xmlns="http://www.w3.org/2000/svg"
        id="svg2895"
        viewBox="0 0 86.493 82.389"
        version="1.1">
    <defs
            id="defs2899"/>
    <g
            id="g2893"
            transform="translate(-59.234 -70.806)">
        <path
                style="stroke:none"
                id="path2891"
                stroke-width="1.3229"
                stroke-opacity=".54436"
                stroke-linejoin="round"
                stroke-linecap="round"
                stroke="#258dff"
                d="m90.131 104.8c-2.0448 1.4207-24.156-11.286-26.634-11.299-2.3623-0.012758-23.924 12.366-25.806 10.92-1.9743-1.5171 3.4849-26.923 2.6963-29.291-0.75182-2.2575-19.844-18.401-19.013-20.622 0.87246-2.3292 26.964-5.4036 28.973-6.856 1.9158-1.3847 11.274-23.869 13.649-23.804 2.4914 0.06816 13.612 23.821 15.625 25.28 1.9192 1.3916 26.186 3.5297 26.865 5.8038 0.71201 2.3854-18.512 19.54-19.275 21.912-0.72744 2.2616 4.8681 26.602 2.9187 27.956z"
                transform="translate(38.554 47.625)"/>
    </g>
</svg>
