<svg width="47.131" height="49.609" version="1.1"
     viewBox="0 0 12.47 13.126" xmlns="http://www.w3.org/2000/svg">
    <defs>
        <linearGradient id="linearGradient1209" x1="-110.23"
                        x2="-79.113" y1="-16.084" y2="-15.025"
                        gradientUnits="userSpaceOnUse">
            <stop stop-color="#433821" stop-opacity=".66532"
                  offset="0"/>
            <stop stop-color="#b6b34a" offset="1"/>
        </linearGradient>
    </defs>
    <g transform="translate(176.92 67.725)">
        <g transform="translate(-6.5721 13.89)">
            <g>
                <path transform="matrix(.26458 0 0 .26458 -209.2 -75.303)"
                      d="m444.36 139.91c-27.562 1e-5 -44.169 9.3768-52.348 13.703-27.923 14.771-34.828 41.885-43.035 80.89-2.3117 10.275-5.7592 31.117 2.6071 37.553 6.629 8.0476 25.878 10.864 35.234 10.03 9.5866 21.292 25.995 42.409 57.542 42.346 31.547 0.063 47.955-21.055 57.542-42.346 9.3557 0.83336 28.605-1.9829 35.234-10.03 8.3664-6.4354 4.9188-27.277 2.6071-37.553-8.2074-39.005-15.112-66.12-43.035-80.89-8.1788-4.3263-24.786-13.703-52.348-13.703zm0 103.32c-48.605 0.0788-57.95 3.1746-63.388 6.0425 1.172 9.205 1.5942 11.221 2.7068 19.905-6.4907 0.30477-17.591 0.25046-24-6.4778-2.5794-2.8822-1.9606-6.5309 0.7514-11.794 2.4146-4.6864 5.0062-8.5338 9.7734-11.184 24.74-11.019 64.475-9.2977 74.156-9.4785 9.6804 0.1808 49.416-1.5406 74.156 9.4785 4.7672 2.6506 7.3588 6.4979 9.7734 11.184 2.712 5.2635 3.3308 8.9122 0.7514 11.794-6.4084 6.7283-17.509 6.7826-24 6.4778 1.1126-8.6838 1.5349-10.7 2.7068-19.905-5.4377-2.8679-14.783-5.9637-63.388-6.0425z"
                />
            </g>
        </g>
        <ellipse cx="202.86" cy="114.08" rx="23.256" ry="24.927"
                 fill="#333" stroke-width=".93786"/>
        <path d="m93.217 70.441-0.27955 0.39305s0.0014 0.25729 0.03125 0.54492c0.01491 0.14382 0.03631 0.29581 0.07031 0.43164s0.07244 0.25652 0.16211 0.34766c0.74454 0.75684 2.3342 1.0776 3.7461 1.2441 1.4119 0.16653 2.8533 0.1582 2.8533 0.1582l-0.08876-0.55327s-1.1989 0.14267-2.7035-0.09613c0 0-2.6845-0.39839-3.4051-1.4381-0.28619-0.3883-0.22613-0.4788-0.38621-1.0321z"
              color="#000000" color-rendering="auto"
              dominant-baseline="auto" fill="#4d4d4d"
              image-rendering="auto"
              shape-rendering="auto" solid-color="#000000"
              stop-color="#000000"
              style="font-feature-settings:normal;font-variant-alternates:normal;font-variant-caps:normal;font-variant-east-asian:normal;font-variant-ligatures:normal;font-variant-numeric:normal;font-variant-position:normal;font-variation-settings:normal;inline-size:0;isolation:auto;mix-blend-mode:normal;shape-margin:0;shape-padding:0;text-decoration-color:#000000;text-decoration-line:none;text-decoration-style:solid;text-indent:0;text-orientation:mixed;text-transform:none;white-space:normal"/>
        <g transform="matrix(.047578 0 0 .047578 39.151 57.784)">
            <path d="m221.5 179.1-38.971-45.53c-4.346-5.08-3.731-12.689 1.376-16.997l41.81-35.316c5.102-4.313 11.427-7.321 14.12-6.712 2.692 0.598 8.643-2.801 13.293-7.598l9.377-9.676c4.65-4.797 5.336-12.494 1.528-17.171-3.807-4.688-11.444-5.542-17.051-1.915l-11.27 7.288c-5.613 3.628-10.166 8.615-10.166 11.145 0 2.529-4.134 8.072-9.236 12.39l-42.398 35.903c-5.102 4.313-12.76 3.704-17.106-1.376l-12.619-14.74c-4.346-5.08-5.075-13.108-1.991-18.172 3.079-5.064 8.316-14.207 8.333-20.891 0.016-8.028-3.737-19.592-19.695-32.618-17.419-14.234-32.969-16.839-43.032-16.48-6.679 0.234-8.42 6.315-4.166 11.471l21.267 25.77c4.253 5.156 4.117 13.402-0.305 18.417l-0.462 0.528c-4.417 5.009-12.619 11.901-18.319 15.398l-0.218 0.131c-5.7 3.492-13.908 2.257-18.33-2.752l-22.114-25.048c-4.422-5.009-10.699-4.248-11.977 2.312-1.561 7.974-1.773 19.782 4.145 34.255 2.529 6.184 7.974 15.626 12.184 20.815 8.137 10.03 16.111 13.619 22.311 14.593 6.598 1.039 16.056-2.578 21.065-4.601 5.015-2.023 12.363 0.288 16.562 5.493l12.57 15.583c4.194 5.2 5.047 11.58 1.904 14.239-3.144 2.665-9.154 0.653-13.424-4.487l-0.577-0.696c-4.264-5.14-9.083-9.312-10.753-9.312s-2.894 5.417-2.73 12.102l0.087 3.753c0.163 6.685-4.977 11.117-11.471 9.91-6.5-1.207-15.953 1.251-21.114 5.493l-54.582 44.796c-5.162 4.243-9.35 11.368-9.35 15.915 0 4.553 3.383 12.466 7.56 17.688l10.421 13.027c4.177 5.221 11.172 9.905 15.626 10.459 4.455 0.566 12.227-2.453 17.367-6.728l54.679-45.53c5.134-4.275 9.513-13.152 9.774-19.831l0.06-1.523c0.261-6.685 5.76-10.916 12.287-9.464l0.577 0.12c6.527 1.452 11.814 1.05 11.814-0.897s-2.725-6.821-6.097-10.878c-3.367-4.052-3.579-9.464-0.479-12.086s9.018-0.533 13.217 4.667l36.42 45.161c4.194 5.2 7.174 11.232 6.918 13.511-0.152 1.365-0.234 2.747-0.234 4.15 0 21.169 17.155 38.318 38.318 38.318s38.318-17.149 38.318-38.318c0-16.605-10.568-30.714-25.346-36.023-6.281-2.265-15.359-6.355-19.705-11.435zm6.734 68.13c-11.417 0-20.668-9.257-20.668-20.674s9.252-20.674 20.668-20.674c11.422 0 20.674 9.257 20.674 20.674-1e-3 11.417-9.252 20.674-20.674 20.674z"
            />
        </g>
        <g>
            <g transform="translate(-74.592 115.27)">
                <g>
                    <path transform="scale(.26458)"
                          d="m453.16 127.89c-27.562 1e-5 -42.728 4.6312-56.908 11.405-23.189 11.077-39.07 56.204-47.278 95.209-2.3117 10.275-5.7592 31.117 2.6071 37.553 6.629 8.0476 20.994 10.01 30.35 9.1769 4.0466 20.331 9.5327 27.942 9.5327 27.942 6.5801 11.187 21.077 41.004 61.696 41.286v-107.41c-54.019-0.84685-58.79 0.70497-74.316 4.3506-0.24225 7.2605 0.46925 13.096 1.5818 21.78-6.4907 0.30477-14.341 0.25046-20.75-6.4778-2.5794-2.8822-1.9606-6.5309 0.7514-11.794 2.4146-4.6864 5.0062-8.2244 9.7734-10.875 13.63-7.5783 33.284-8.797 53.727-9.123 16.932-0.27005 15.916-0.53125 29.232-0.35547zm0 0c27.562 1e-5 42.728 4.6312 56.908 11.405 23.189 11.077 39.07 56.204 47.278 95.209 2.3117 10.275 5.7592 31.117-2.6071 37.553-6.629 8.0476-20.994 10.01-30.35 9.1769-4.0466 20.331-9.5327 27.942-9.5327 27.942-6.5801 11.187-21.077 41.004-61.696 41.286v-107.41c54.019-0.84685 58.79 0.70497 74.316 4.3506 0.24225 7.2605-0.46925 13.096-1.5818 21.78 6.4907 0.30477 14.341 0.25046 20.75-6.4778 2.5794-2.8822 1.9606-6.5309-0.7514-11.794-2.4146-4.6864-5.0062-8.2244-9.7734-10.875-13.63-7.5783-33.284-8.797-53.727-9.123-16.932-0.27005-15.916-0.53125-29.232-0.35547z"
                          stroke-width="3.9194"/>
                </g>
            </g>
            <g transform="translate(-109.18 54.398)" fill="#f1f1f1">
                <g fill="#f1f1f1">
                    <path transform="matrix(.26458 0 0 .26458 -209.2 -75.303)"
                          d="m444.36 131.43c-27.562 1e-5 -44.169 9.3768-52.348 13.703-27.923 14.771-34.828 50.37-43.035 89.376-2.3117 10.275-6.2012 28.908 2.4303 37.774 7.4245 7.8266 26.055 10.643 35.411 9.8095 9.5866 33.666 25.995 50.187 57.542 50.124 31.547 0.063 47.955-16.458 57.542-50.124 9.3557 0.83336 27.986-1.9829 35.411-9.8095 8.6315-8.866 4.742-27.498 2.4303-37.774-8.2074-39.005-15.112-74.605-43.035-89.376-8.1788-4.3263-24.786-13.703-52.348-13.703zm0 111.81c-48.605 0.0788-57.95 3.1746-63.388 6.0425 1.172 9.205 1.5942 11.221 2.7068 19.905-6.4907 0.30477-17.591 0.25046-24-6.4778-2.5794-2.8822-1.9606-6.5309 0.7514-11.794 2.4146-4.6864 5.0062-8.5338 9.7734-11.184 24.74-11.019 64.475-9.2977 74.156-9.4785 9.6804 0.1808 49.416-1.5406 74.156 9.4785 4.7672 2.6506 7.3588 6.4979 9.7734 11.184 2.712 5.2635 3.3308 8.9122 0.7514 11.794-6.4084 6.7283-17.509 6.7826-24 6.4778 1.1126-8.6838 1.5349-10.7 2.7068-19.905-5.4377-2.8679-14.783-5.9637-63.388-6.0425z"
                          fill="#f1f1f1"/>
                </g>
            </g>
            <g transform="translate(-6.4186 119.54)">
                <g>
                    <path transform="matrix(.26458 0 0 .26458 -209.2 -75.303)"
                          d="m444.36 131.43c-27.562 1e-5 -44.169 9.3768-52.348 13.703-27.923 14.771-34.828 50.37-43.035 89.376-2.3117 10.275-5.7592 31.117 2.6071 37.553 6.629 8.0476 25.878 10.864 35.234 10.03 9.5866 33.666 25.995 50.187 57.542 50.124 31.547 0.063 47.955-16.458 57.542-50.124 9.3557 0.83336 28.605-1.9829 35.234-10.03 8.3664-6.4354 4.9188-27.277 2.6071-37.553-8.2074-39.005-15.112-74.605-43.035-89.376-8.1788-4.3263-24.786-13.703-52.348-13.703zm0 111.81c-48.605 0.0788-57.95 3.1746-63.388 6.0425 1.172 9.205 1.3442 12.096 1.5818 16.405-25.562-2.9217-19.595-22.486-12.35-25.957 16.24-8.0191 64.475-9.2977 74.156-9.4785 9.6804 0.1808 57.916 1.4594 74.156 9.4785 7.2449 3.4702 13.212 23.035-12.35 25.957 0.2376-4.3088 0.40989-7.2 1.5818-16.405-5.4377-2.8679-14.783-5.9637-63.388-6.0425z"
                    />
                </g>
            </g>
        </g>
        <g transform="translate(-74.519 61.542)" fill="none"
           stroke-width="0">
            <g fill="none" stroke-width="0">
                <path transform="matrix(.26458 0 0 .26458 -209.2 -75.303)"
                      d="m444.36 131.43c-27.562 1e-5 -44.169 9.3768-52.348 13.703-27.923 14.771-34.076 50.415-42.284 89.42-2.3117 10.275-5.4057 28.996 2.0326 36.757 8.22 7.1637 26.201 10.959 35.557 10.126 9.5866 33.666 25.495 49.594 57.042 49.531 31.547 0.063 47.455-15.865 57.042-49.531 9.3557 0.83336 27.337-2.9618 35.557-10.126 7.4383-7.7612 4.3442-26.482 2.0326-36.757-8.2074-39.005-14.361-74.649-42.284-89.42-8.1788-4.3263-24.786-13.703-52.348-13.703zm0 110.61c-48.605 0.0788-58.077 2.5338-64.84 6.5066 1.0157 9.2363 1.4565 10.779 2.7566 19.463-6.3139 0.12799-13.625 0.18417-21.89-6.1905-1.8723-4.1196-0.41723-6.7604 1.2483-10.331 1.447-3.1018 4.8629-8.3624 9.6301-11.013 26.508-10.312 63.415-8.9 73.095-9.0808 9.6804 0.1808 46.587-1.2312 73.095 9.0808 4.7672 2.6506 8.1831 7.9111 9.6301 11.013 1.6655 3.5702 3.1205 6.211 1.2483 10.331-8.2646 6.3747-15.576 6.3185-21.89 6.1905 1.3001-8.6838 1.7409-10.227 2.7566-19.463-6.7635-3.9728-16.235-6.4278-64.84-6.5066z"
                      fill="none"/>
            </g>
        </g>
        <g>
            <g transform="translate(-109.18 54.398)" fill="#1c1c1c">
                <g fill="#1c1c1c">
                    <path transform="matrix(.26458 0 0 .26458 -209.2 -75.303)"
                          d="m444.36 134.03c-27.417 0.0641-44.657 10.657-52.598 15.352-20.499 12.119-27.956 35.84-39.664 84.345-1.251 10.983-7.0244 27.567 1.6071 36.433 7.4245 7.8266 24.994 11.173 34.35 10.34 11.001 33.666 24.757 49.304 56.304 49.241 31.547 0.063 45.303-15.574 56.304-49.241 9.3557 0.83336 26.925-2.5132 34.35-10.34 8.6315-8.866 2.8581-25.45 1.6071-36.433-11.707-48.505-19.165-72.226-39.664-84.345-7.9406-4.6946-25.181-15.288-52.598-15.352zm0 108.61c-48.528 0.082-58.307 2.8852-63.741 5.7513 1.172 9.205 1.771 11.752 2.8836 20.435-6.4907 0.30477-17.102 0.41651-23.511-6.3118-2.5794-2.8822-1.9606-6.1559 0.7514-11.419 2.4146-4.6864 5.3705-8.3128 9.6377-11.151 25.102-10.487 64.151-8.9198 73.979-9.0894 9.8284 0.16961 48.877-1.3979 73.979 9.0894 4.2672 2.8381 7.2231 6.4645 9.6377 11.151 2.712 5.2635 3.3308 8.5372 0.7514 11.419-6.4084 6.7283-17.02 6.6165-23.511 6.3118 1.1126-8.6838 1.7117-11.23 2.8836-20.435-5.4344-2.8662-15.213-5.6693-63.741-5.7513z"
                          fill="#1c1c1c"/>
                </g>
            </g>
            <path transform="scale(.26458)"
                  d="m-437.33 430.62c-6.2339-1.6078-10.458-4.8642-11.754-9.0611-1.4717-4.7648 0.6703-10.87 4.6275-13.189 2.1918-1.2845 6.6727-2.7586 12.002-3.9485 17.744-3.9615 53.464-6.3981 76.25-5.2012 26.789 1.4071 44.445 3.7262 54.86 7.2056 3.6447 1.2176 5.2522 2.0904 6.5899 3.5783 2.2879 2.5447 3.3139 5.5512 3.1247 9.1563-0.0886 1.6886-0.25562 2.3496-0.94994 3.7601-1.5484 3.1457-4.7214 5.5988-9.1247 7.0548-2.4417 0.80732-5.3062 1.4338-5.5304 1.2095-0.17468-0.17467 0.26265-5.2424 0.91914-10.651 0.27358-2.254 0.43049-4.309 0.34869-4.5667-0.0818-0.25773-0.61115-0.70452-1.1763-0.99285-8.1871-4.1767-25.679-5.7669-63.436-5.7669-35.667 0-53.138 1.4284-61.854 5.057-2.5253 1.0513-2.9965 1.5056-2.8085 2.7076 0.23164 1.4806 1.1202 9.7307 1.303 12.097 0.16864 2.1841 0.16797 2.1875-0.42317 2.1752-0.32563-7e-3 -1.6608-0.28794-2.9671-0.62484z"
                  fill="#ddd" stroke="#ddd" stroke-linejoin="round"
                  stroke-width="1.25"/>
            <path transform="scale(.26458)"
                  d="m-435.89 431.47c-5.8684-1.223-10.938-4.3102-12.852-7.8258-2.901-5.3301-0.67261-13.211 4.5112-15.954 12.222-6.4674 59.245-10.848 93.328-8.694 22.585 1.4272 36.472 3.2234 46.62 6.0299 7.3168 2.0236 9.839 3.6138 11.746 7.4061 1.0944 2.1759 1.4649 4.0266 1.3379 6.6828-0.0839 1.7554-0.24748 2.4516-0.90707 3.8611-1.708 3.6499-5.7869 6.5428-11.297 8.0122-2.9007 0.77353-4.1423 0.82359-4.3122 0.17385-0.14379-0.54983 0.13129-3.9972 0.81846-10.257 0.56864-5.1804 0.59907-5.0386-1.2528-5.8365-5.7902-2.4948-14.474-3.8838-29.379-4.6993-18.174-0.99442-58.35-0.71307-73.875 0.51735-10.283 0.81492-18.667 2.5311-22.343 4.5735l-0.96845 0.53799 0.14456 1.75c0.0795 0.9625 0.37289 3.8312 0.65196 6.375 0.27908 2.5438 0.5092 5.2117 0.5114 5.9287 5e-3 1.6806-0.32381 1.8684-2.4837 1.4183z"
                  stroke="#f2f2f2" stroke-linejoin="round"
                  stroke-width="1.25"/>
            <g transform="translate(-95.321 155.79)" fill="#0b67a6">
                <g fill="#0b67a6">
                    <path transform="matrix(.26458 0 0 .26458 -209.2 -75.303)"
                          d="m444.36 131.43c-27.562 1e-5 -44.169 9.3768-52.348 13.703-27.923 14.771-34.828 50.37-43.035 89.376-2.3117 10.275-5.7592 31.117 2.6071 37.553 6.629 8.0476 25.878 10.864 35.234 10.03 9.5866 33.666 25.995 50.187 57.542 50.124 31.547 0.063 47.955-16.458 57.542-50.124 9.3557 0.83336 28.605-1.9829 35.234-10.03 8.3664-6.4354 4.9188-27.277 2.6071-37.553-8.2074-39.005-15.112-74.605-43.035-89.376-8.1788-4.3263-24.786-13.703-52.348-13.703zm0 111.81c-48.605 0.0788-57.95 3.1746-63.388 6.0425 1.172 9.205 1.5942 11.221 2.7068 19.905-6.4907 0.30477-17.591 0.25046-24-6.4778-2.5794-2.8822-1.9606-6.5309 0.7514-11.794 2.4146-4.6864 5.0062-8.5338 9.7734-11.184 24.74-11.019 64.475-9.2977 74.156-9.4785 9.6804 0.1808 49.416-1.5406 74.156 9.4785 4.7672 2.6506 7.3588 6.4979 9.7734 11.184 2.712 5.2635 3.3308 8.9122 0.7514 11.794-6.4084 6.7283-17.509 6.7826-24 6.4778 1.1126-8.6838 1.5349-10.7 2.7068-19.905-5.4377-2.8679-14.783-5.9637-63.388-6.0425z"
                          fill="#000"/>
                </g>
            </g>
        </g>
        <g>
            <path transform="scale(.26458)"
                  d="m-776.49 572.99c-5.8375-0.67903-10.897-2.7186-13.829-5.5751-3.159-3.0769-3.1696-5.564-0.0508-11.889 3.3801-6.8553 6.5886-10.14 12.08-12.369 11.995-4.8678 27.776-7.4546 50.977-8.3562 11.497-0.44677 42.492-0.21709 50.791 0.37636 17.737 1.2684 30.784 3.7383 41.425 7.842 5.3749 2.0728 8.9429 5.6629 12.308 12.384 3.1215 6.2353 3.1127 8.9423-0.0392 12.012-3.8943 3.7932-11.215 5.9528-20.21 5.9623l-2.7561 3e-3 0.1961-1.149c0.10785-0.63198 0.67225-4.6492 1.2542-8.9272 0.58198-4.278 1.1414-8.2787 1.2433-8.8904 0.18172-1.0918 0.13772-1.1319-2.3872-2.1769-8.0528-3.3327-28.475-5.0065-61.085-5.0065-32.611 0-53.033 1.6738-61.085 5.0066-2.5286 1.0465-2.5691 1.0836-2.3802 2.1769 0.1057 0.61174 0.66382 4.6124 1.2403 8.8904 0.57644 4.278 1.1377 8.2952 1.2472 8.9272l0.19909 1.149-3.2864-0.0459c-1.8075-0.0252-4.4404-0.1801-5.8508-0.34416z"
                  fill="#7ec2f9"/>
            <g transform="translate(58.437 44.961)">
                <g>
                    <path transform="matrix(.26458 0 0 .26458 -209.2 -75.303)"
                          d="m444.36 131.43c-27.562 1e-5 -44.169 9.3768-52.348 13.703-27.923 14.771-36.078 71.37-46.285 89.876-2.3117 10.275 3.3851 27.167 11.251 34.853 11.879 12.504 84.113 8.4896 87.381 8.3012 3.2686 0.18841 75.502 4.2027 87.381-8.3012 7.8664-7.6854 13.563-24.577 11.251-34.853-10.207-18.505-18.362-75.105-46.285-89.876-8.1788-4.3263-24.786-13.703-52.348-13.703zm0 133.51c-45.211 1.0793-59.464 3.3416-69.181-1.2516-12.312-4.4217-12.22-20.486-4.975-23.957 16.24-8.0191 64.475-9.2977 74.156-9.4785l5e-5 -98.819 5e-5 98.819c9.6804 0.1808 57.916 1.4594 74.156 9.4785 7.2449 3.4702 7.3372 19.535-4.975 23.957-9.7163 4.5932-23.97 2.3308-69.181 1.2516z"
                    />
                </g>
            </g>
            <g transform="translate(201.28 134.36)"
               fill="url(#linearGradient1209)" stroke="#000"
               stroke-width=".63818">
                <path transform="matrix(.26458 0 0 .26458 -209.2 -75.303)"
                      d="m444.36 131.43c-27.562 1e-5 -44.169 9.3768-52.348 13.703-27.923 14.771-34.828 50.37-43.035 89.376-2.3117 10.275-5.7592 31.117 2.6071 37.553 6.629 8.0476 25.878 10.864 35.234 10.03 9.5866 33.666 25.995 50.187 57.542 50.124 31.547 0.063 47.955-16.458 57.542-50.124 9.3557 0.83336 28.605-1.9829 35.234-10.03 8.3664-6.4354 4.9188-27.277 2.6071-37.553-8.2074-39.005-15.112-74.605-43.035-89.376-8.1788-4.3263-24.786-13.703-52.348-13.703zm0 200.79-0.11209-2.5686c-43.169-2.0037-44.255-27.101-56.431-50.405-33.187-5.0467-24.857-36.045-17.613-39.515 16.24-8.0191 64.475-9.2977 74.156-9.4785 9.6804 0.1808 57.916 1.4594 74.156 9.4785 7.2449 3.4702 15.575 34.468-17.613 39.515-12.176 23.304-13.263 48.401-56.431 50.405z"
                      stroke="none"/>
            </g>
            <g transform="matrix(.45397 0 0 .52507 -123.54 -47.623)">
                <g transform="matrix(.6668 0 0 .6563 -39.177 -13.158)">
                    <path transform="matrix(.20998 0 0 .20642 -190.29 -67.166)"
                          d="m444.36 139.91c-27.562 1e-5 -44.169 9.3768-52.348 13.703-27.923 14.771-34.828 41.885-43.035 80.89-2.3117 10.275-5.7592 31.117 2.6071 37.553 6.629 8.0476 25.878 10.864 35.234 10.03 9.5866 21.292 25.995 42.409 57.542 42.346 31.547 0.063 47.955-21.055 57.542-42.346 9.3557 0.83336 28.605-1.9829 35.234-10.03 8.3664-6.4354 4.9188-27.277 2.6071-37.553-8.2074-39.005-15.112-66.12-43.035-80.89-8.1788-4.3263-24.786-13.703-52.348-13.703zm0 103.32c-48.605 0.0788-57.95 3.1746-63.388 6.0425 1.172 9.205 1.5942 11.221 2.7068 19.905-6.4907 0.30477-17.591 0.25046-24-6.4778-2.5794-2.8822-1.9606-6.5309 0.7514-11.794 2.4146-4.6864 5.0062-8.5338 9.7734-11.184 24.74-11.019 64.475-9.2977 74.156-9.4785 9.6804 0.1808 49.416-1.5406 74.156 9.4785 4.7672 2.6506 7.3588 6.4979 9.7734 11.184 2.712 5.2635 3.3308 8.9122 0.7514 11.794-6.4084 6.7283-17.509 6.7826-24 6.4778 1.1126-8.6838 1.5349-10.7 2.7068-19.905-5.4377-2.8679-14.783-5.9637-63.388-6.0425z"
                    />
                </g>
            </g>
        </g>
    </g>
</svg>
